%TF.GenerationSoftware,KiCad,Pcbnew,(6.0.10)*%
%TF.CreationDate,2023-03-08T20:46:57-06:00*%
%TF.ProjectId,defroster_pcb,64656672-6f73-4746-9572-5f7063622e6b,rev?*%
%TF.SameCoordinates,Original*%
%TF.FileFunction,Legend,Top*%
%TF.FilePolarity,Positive*%
%FSLAX46Y46*%
G04 Gerber Fmt 4.6, Leading zero omitted, Abs format (unit mm)*
G04 Created by KiCad (PCBNEW (6.0.10)) date 2023-03-08 20:46:57*
%MOMM*%
%LPD*%
G01*
G04 APERTURE LIST*
%ADD10C,0.300000*%
%ADD11C,0.150000*%
%ADD12C,0.120000*%
G04 APERTURE END LIST*
D10*
X162112857Y-94712142D02*
X162327142Y-94783571D01*
X162684285Y-94783571D01*
X162827142Y-94712142D01*
X162898571Y-94640714D01*
X162970000Y-94497857D01*
X162970000Y-94355000D01*
X162898571Y-94212142D01*
X162827142Y-94140714D01*
X162684285Y-94069285D01*
X162398571Y-93997857D01*
X162255714Y-93926428D01*
X162184285Y-93855000D01*
X162112857Y-93712142D01*
X162112857Y-93569285D01*
X162184285Y-93426428D01*
X162255714Y-93355000D01*
X162398571Y-93283571D01*
X162755714Y-93283571D01*
X162970000Y-93355000D01*
X163612857Y-94783571D02*
X163612857Y-93783571D01*
X163612857Y-93926428D02*
X163684285Y-93855000D01*
X163827142Y-93783571D01*
X164041428Y-93783571D01*
X164184285Y-93855000D01*
X164255714Y-93997857D01*
X164255714Y-94783571D01*
X164255714Y-93997857D02*
X164327142Y-93855000D01*
X164470000Y-93783571D01*
X164684285Y-93783571D01*
X164827142Y-93855000D01*
X164898571Y-93997857D01*
X164898571Y-94783571D01*
X166255714Y-94783571D02*
X166255714Y-93997857D01*
X166184285Y-93855000D01*
X166041428Y-93783571D01*
X165755714Y-93783571D01*
X165612857Y-93855000D01*
X166255714Y-94712142D02*
X166112857Y-94783571D01*
X165755714Y-94783571D01*
X165612857Y-94712142D01*
X165541428Y-94569285D01*
X165541428Y-94426428D01*
X165612857Y-94283571D01*
X165755714Y-94212142D01*
X166112857Y-94212142D01*
X166255714Y-94140714D01*
X166970000Y-94783571D02*
X166970000Y-93783571D01*
X166970000Y-94069285D02*
X167041428Y-93926428D01*
X167112857Y-93855000D01*
X167255714Y-93783571D01*
X167398571Y-93783571D01*
X167684285Y-93783571D02*
X168255714Y-93783571D01*
X167898571Y-93283571D02*
X167898571Y-94569285D01*
X167970000Y-94712142D01*
X168112857Y-94783571D01*
X168255714Y-94783571D01*
X169898571Y-94783571D02*
X169898571Y-93283571D01*
X170255714Y-93283571D01*
X170470000Y-93355000D01*
X170612857Y-93497857D01*
X170684285Y-93640714D01*
X170755714Y-93926428D01*
X170755714Y-94140714D01*
X170684285Y-94426428D01*
X170612857Y-94569285D01*
X170470000Y-94712142D01*
X170255714Y-94783571D01*
X169898571Y-94783571D01*
X171970000Y-94712142D02*
X171827142Y-94783571D01*
X171541428Y-94783571D01*
X171398571Y-94712142D01*
X171327142Y-94569285D01*
X171327142Y-93997857D01*
X171398571Y-93855000D01*
X171541428Y-93783571D01*
X171827142Y-93783571D01*
X171970000Y-93855000D01*
X172041428Y-93997857D01*
X172041428Y-94140714D01*
X171327142Y-94283571D01*
X172470000Y-93783571D02*
X173041428Y-93783571D01*
X172684285Y-94783571D02*
X172684285Y-93497857D01*
X172755714Y-93355000D01*
X172898571Y-93283571D01*
X173041428Y-93283571D01*
X173541428Y-94783571D02*
X173541428Y-93783571D01*
X173541428Y-94069285D02*
X173612857Y-93926428D01*
X173684285Y-93855000D01*
X173827142Y-93783571D01*
X173970000Y-93783571D01*
X174684285Y-94783571D02*
X174541428Y-94712142D01*
X174470000Y-94640714D01*
X174398571Y-94497857D01*
X174398571Y-94069285D01*
X174470000Y-93926428D01*
X174541428Y-93855000D01*
X174684285Y-93783571D01*
X174898571Y-93783571D01*
X175041428Y-93855000D01*
X175112857Y-93926428D01*
X175184285Y-94069285D01*
X175184285Y-94497857D01*
X175112857Y-94640714D01*
X175041428Y-94712142D01*
X174898571Y-94783571D01*
X174684285Y-94783571D01*
X175755714Y-94712142D02*
X175898571Y-94783571D01*
X176184285Y-94783571D01*
X176327142Y-94712142D01*
X176398571Y-94569285D01*
X176398571Y-94497857D01*
X176327142Y-94355000D01*
X176184285Y-94283571D01*
X175970000Y-94283571D01*
X175827142Y-94212142D01*
X175755714Y-94069285D01*
X175755714Y-93997857D01*
X175827142Y-93855000D01*
X175970000Y-93783571D01*
X176184285Y-93783571D01*
X176327142Y-93855000D01*
X176827142Y-93783571D02*
X177398571Y-93783571D01*
X177041428Y-93283571D02*
X177041428Y-94569285D01*
X177112857Y-94712142D01*
X177255714Y-94783571D01*
X177398571Y-94783571D01*
X178470000Y-94712142D02*
X178327142Y-94783571D01*
X178041428Y-94783571D01*
X177898571Y-94712142D01*
X177827142Y-94569285D01*
X177827142Y-93997857D01*
X177898571Y-93855000D01*
X178041428Y-93783571D01*
X178327142Y-93783571D01*
X178470000Y-93855000D01*
X178541428Y-93997857D01*
X178541428Y-94140714D01*
X177827142Y-94283571D01*
X179184285Y-94783571D02*
X179184285Y-93783571D01*
X179184285Y-94069285D02*
X179255714Y-93926428D01*
X179327142Y-93855000D01*
X179470000Y-93783571D01*
X179612857Y-93783571D01*
X181041428Y-93283571D02*
X181541428Y-94783571D01*
X182041428Y-93283571D01*
X183327142Y-94783571D02*
X182470000Y-94783571D01*
X182898571Y-94783571D02*
X182898571Y-93283571D01*
X182755714Y-93497857D01*
X182612857Y-93640714D01*
X182470000Y-93712142D01*
X165434285Y-95841428D02*
X165505714Y-95770000D01*
X165648571Y-95698571D01*
X166005714Y-95698571D01*
X166148571Y-95770000D01*
X166220000Y-95841428D01*
X166291428Y-95984285D01*
X166291428Y-96127142D01*
X166220000Y-96341428D01*
X165362857Y-97198571D01*
X166291428Y-97198571D01*
X167220000Y-95698571D02*
X167362857Y-95698571D01*
X167505714Y-95770000D01*
X167577142Y-95841428D01*
X167648571Y-95984285D01*
X167720000Y-96270000D01*
X167720000Y-96627142D01*
X167648571Y-96912857D01*
X167577142Y-97055714D01*
X167505714Y-97127142D01*
X167362857Y-97198571D01*
X167220000Y-97198571D01*
X167077142Y-97127142D01*
X167005714Y-97055714D01*
X166934285Y-96912857D01*
X166862857Y-96627142D01*
X166862857Y-96270000D01*
X166934285Y-95984285D01*
X167005714Y-95841428D01*
X167077142Y-95770000D01*
X167220000Y-95698571D01*
X168291428Y-95841428D02*
X168362857Y-95770000D01*
X168505714Y-95698571D01*
X168862857Y-95698571D01*
X169005714Y-95770000D01*
X169077142Y-95841428D01*
X169148571Y-95984285D01*
X169148571Y-96127142D01*
X169077142Y-96341428D01*
X168220000Y-97198571D01*
X169148571Y-97198571D01*
X169648571Y-95698571D02*
X170577142Y-95698571D01*
X170077142Y-96270000D01*
X170291428Y-96270000D01*
X170434285Y-96341428D01*
X170505714Y-96412857D01*
X170577142Y-96555714D01*
X170577142Y-96912857D01*
X170505714Y-97055714D01*
X170434285Y-97127142D01*
X170291428Y-97198571D01*
X169862857Y-97198571D01*
X169720000Y-97127142D01*
X169648571Y-97055714D01*
X171220000Y-96627142D02*
X172362857Y-96627142D01*
X173362857Y-95698571D02*
X173505714Y-95698571D01*
X173648571Y-95770000D01*
X173720000Y-95841428D01*
X173791428Y-95984285D01*
X173862857Y-96270000D01*
X173862857Y-96627142D01*
X173791428Y-96912857D01*
X173720000Y-97055714D01*
X173648571Y-97127142D01*
X173505714Y-97198571D01*
X173362857Y-97198571D01*
X173220000Y-97127142D01*
X173148571Y-97055714D01*
X173077142Y-96912857D01*
X173005714Y-96627142D01*
X173005714Y-96270000D01*
X173077142Y-95984285D01*
X173148571Y-95841428D01*
X173220000Y-95770000D01*
X173362857Y-95698571D01*
X174362857Y-95698571D02*
X175291428Y-95698571D01*
X174791428Y-96270000D01*
X175005714Y-96270000D01*
X175148571Y-96341428D01*
X175220000Y-96412857D01*
X175291428Y-96555714D01*
X175291428Y-96912857D01*
X175220000Y-97055714D01*
X175148571Y-97127142D01*
X175005714Y-97198571D01*
X174577142Y-97198571D01*
X174434285Y-97127142D01*
X174362857Y-97055714D01*
X175934285Y-96627142D02*
X177077142Y-96627142D01*
X178077142Y-95698571D02*
X178220000Y-95698571D01*
X178362857Y-95770000D01*
X178434285Y-95841428D01*
X178505714Y-95984285D01*
X178577142Y-96270000D01*
X178577142Y-96627142D01*
X178505714Y-96912857D01*
X178434285Y-97055714D01*
X178362857Y-97127142D01*
X178220000Y-97198571D01*
X178077142Y-97198571D01*
X177934285Y-97127142D01*
X177862857Y-97055714D01*
X177791428Y-96912857D01*
X177720000Y-96627142D01*
X177720000Y-96270000D01*
X177791428Y-95984285D01*
X177862857Y-95841428D01*
X177934285Y-95770000D01*
X178077142Y-95698571D01*
X179434285Y-96341428D02*
X179291428Y-96270000D01*
X179220000Y-96198571D01*
X179148571Y-96055714D01*
X179148571Y-95984285D01*
X179220000Y-95841428D01*
X179291428Y-95770000D01*
X179434285Y-95698571D01*
X179720000Y-95698571D01*
X179862857Y-95770000D01*
X179934285Y-95841428D01*
X180005714Y-95984285D01*
X180005714Y-96055714D01*
X179934285Y-96198571D01*
X179862857Y-96270000D01*
X179720000Y-96341428D01*
X179434285Y-96341428D01*
X179291428Y-96412857D01*
X179220000Y-96484285D01*
X179148571Y-96627142D01*
X179148571Y-96912857D01*
X179220000Y-97055714D01*
X179291428Y-97127142D01*
X179434285Y-97198571D01*
X179720000Y-97198571D01*
X179862857Y-97127142D01*
X179934285Y-97055714D01*
X180005714Y-96912857D01*
X180005714Y-96627142D01*
X179934285Y-96484285D01*
X179862857Y-96412857D01*
X179720000Y-96341428D01*
X167970000Y-98113571D02*
X168827142Y-98113571D01*
X168398571Y-99613571D02*
X168398571Y-98113571D01*
X169898571Y-99542142D02*
X169755714Y-99613571D01*
X169470000Y-99613571D01*
X169327142Y-99542142D01*
X169255714Y-99399285D01*
X169255714Y-98827857D01*
X169327142Y-98685000D01*
X169470000Y-98613571D01*
X169755714Y-98613571D01*
X169898571Y-98685000D01*
X169970000Y-98827857D01*
X169970000Y-98970714D01*
X169255714Y-99113571D01*
X171255714Y-99613571D02*
X171255714Y-98827857D01*
X171184285Y-98685000D01*
X171041428Y-98613571D01*
X170755714Y-98613571D01*
X170612857Y-98685000D01*
X171255714Y-99542142D02*
X171112857Y-99613571D01*
X170755714Y-99613571D01*
X170612857Y-99542142D01*
X170541428Y-99399285D01*
X170541428Y-99256428D01*
X170612857Y-99113571D01*
X170755714Y-99042142D01*
X171112857Y-99042142D01*
X171255714Y-98970714D01*
X171970000Y-99613571D02*
X171970000Y-98613571D01*
X171970000Y-98756428D02*
X172041428Y-98685000D01*
X172184285Y-98613571D01*
X172398571Y-98613571D01*
X172541428Y-98685000D01*
X172612857Y-98827857D01*
X172612857Y-99613571D01*
X172612857Y-98827857D02*
X172684285Y-98685000D01*
X172827142Y-98613571D01*
X173041428Y-98613571D01*
X173184285Y-98685000D01*
X173255714Y-98827857D01*
X173255714Y-99613571D01*
X175755714Y-98613571D02*
X175755714Y-99613571D01*
X175398571Y-98042142D02*
X175041428Y-99113571D01*
X175970000Y-99113571D01*
X176612857Y-99613571D02*
X176898571Y-99613571D01*
X177041428Y-99542142D01*
X177112857Y-99470714D01*
X177255714Y-99256428D01*
X177327142Y-98970714D01*
X177327142Y-98399285D01*
X177255714Y-98256428D01*
X177184285Y-98185000D01*
X177041428Y-98113571D01*
X176755714Y-98113571D01*
X176612857Y-98185000D01*
X176541428Y-98256428D01*
X176470000Y-98399285D01*
X176470000Y-98756428D01*
X176541428Y-98899285D01*
X176612857Y-98970714D01*
X176755714Y-99042142D01*
X177041428Y-99042142D01*
X177184285Y-98970714D01*
X177255714Y-98899285D01*
X177327142Y-98756428D01*
D11*
%TO.C,U3*%
X142054095Y-109242380D02*
X142054095Y-110051904D01*
X142101714Y-110147142D01*
X142149333Y-110194761D01*
X142244571Y-110242380D01*
X142435047Y-110242380D01*
X142530285Y-110194761D01*
X142577904Y-110147142D01*
X142625523Y-110051904D01*
X142625523Y-109242380D01*
X143006476Y-109242380D02*
X143625523Y-109242380D01*
X143292190Y-109623333D01*
X143435047Y-109623333D01*
X143530285Y-109670952D01*
X143577904Y-109718571D01*
X143625523Y-109813809D01*
X143625523Y-110051904D01*
X143577904Y-110147142D01*
X143530285Y-110194761D01*
X143435047Y-110242380D01*
X143149333Y-110242380D01*
X143054095Y-110194761D01*
X143006476Y-110147142D01*
%TO.C,H2*%
X177038095Y-59898880D02*
X177038095Y-58898880D01*
X177038095Y-59375071D02*
X177609523Y-59375071D01*
X177609523Y-59898880D02*
X177609523Y-58898880D01*
X178038095Y-58994119D02*
X178085714Y-58946500D01*
X178180952Y-58898880D01*
X178419047Y-58898880D01*
X178514285Y-58946500D01*
X178561904Y-58994119D01*
X178609523Y-59089357D01*
X178609523Y-59184595D01*
X178561904Y-59327452D01*
X177990476Y-59898880D01*
X178609523Y-59898880D01*
%TO.C,J2*%
X180943333Y-68550571D02*
X181086190Y-68598190D01*
X181133809Y-68645809D01*
X181181428Y-68741047D01*
X181181428Y-68883904D01*
X181133809Y-68979142D01*
X181086190Y-69026761D01*
X180990952Y-69074380D01*
X180610000Y-69074380D01*
X180610000Y-68074380D01*
X180943333Y-68074380D01*
X181038571Y-68122000D01*
X181086190Y-68169619D01*
X181133809Y-68264857D01*
X181133809Y-68360095D01*
X181086190Y-68455333D01*
X181038571Y-68502952D01*
X180943333Y-68550571D01*
X180610000Y-68550571D01*
X181467142Y-68407714D02*
X181848095Y-68407714D01*
X181610000Y-68074380D02*
X181610000Y-68931523D01*
X181657619Y-69026761D01*
X181752857Y-69074380D01*
X181848095Y-69074380D01*
X182181428Y-68407714D02*
X182181428Y-69074380D01*
X182181428Y-68502952D02*
X182229047Y-68455333D01*
X182324285Y-68407714D01*
X182467142Y-68407714D01*
X182562380Y-68455333D01*
X182610000Y-68550571D01*
X182610000Y-69074380D01*
%TO.C,C2*%
X120483333Y-87577142D02*
X120435714Y-87624761D01*
X120292857Y-87672380D01*
X120197619Y-87672380D01*
X120054761Y-87624761D01*
X119959523Y-87529523D01*
X119911904Y-87434285D01*
X119864285Y-87243809D01*
X119864285Y-87100952D01*
X119911904Y-86910476D01*
X119959523Y-86815238D01*
X120054761Y-86720000D01*
X120197619Y-86672380D01*
X120292857Y-86672380D01*
X120435714Y-86720000D01*
X120483333Y-86767619D01*
X120864285Y-86767619D02*
X120911904Y-86720000D01*
X121007142Y-86672380D01*
X121245238Y-86672380D01*
X121340476Y-86720000D01*
X121388095Y-86767619D01*
X121435714Y-86862857D01*
X121435714Y-86958095D01*
X121388095Y-87100952D01*
X120816666Y-87672380D01*
X121435714Y-87672380D01*
%TO.C,R7*%
X160429333Y-84277380D02*
X160096000Y-83801190D01*
X159857904Y-84277380D02*
X159857904Y-83277380D01*
X160238857Y-83277380D01*
X160334095Y-83325000D01*
X160381714Y-83372619D01*
X160429333Y-83467857D01*
X160429333Y-83610714D01*
X160381714Y-83705952D01*
X160334095Y-83753571D01*
X160238857Y-83801190D01*
X159857904Y-83801190D01*
X160762666Y-83277380D02*
X161429333Y-83277380D01*
X161000761Y-84277380D01*
%TO.C,R1*%
X165001333Y-86691380D02*
X164668000Y-86215190D01*
X164429904Y-86691380D02*
X164429904Y-85691380D01*
X164810857Y-85691380D01*
X164906095Y-85739000D01*
X164953714Y-85786619D01*
X165001333Y-85881857D01*
X165001333Y-86024714D01*
X164953714Y-86119952D01*
X164906095Y-86167571D01*
X164810857Y-86215190D01*
X164429904Y-86215190D01*
X165953714Y-86691380D02*
X165382285Y-86691380D01*
X165668000Y-86691380D02*
X165668000Y-85691380D01*
X165572761Y-85834238D01*
X165477523Y-85929476D01*
X165382285Y-85977095D01*
%TO.C,C4*%
X133759333Y-111615142D02*
X133711714Y-111662761D01*
X133568857Y-111710380D01*
X133473619Y-111710380D01*
X133330761Y-111662761D01*
X133235523Y-111567523D01*
X133187904Y-111472285D01*
X133140285Y-111281809D01*
X133140285Y-111138952D01*
X133187904Y-110948476D01*
X133235523Y-110853238D01*
X133330761Y-110758000D01*
X133473619Y-110710380D01*
X133568857Y-110710380D01*
X133711714Y-110758000D01*
X133759333Y-110805619D01*
X134616476Y-111043714D02*
X134616476Y-111710380D01*
X134378380Y-110662761D02*
X134140285Y-111377047D01*
X134759333Y-111377047D01*
%TO.C,R3*%
X157635333Y-79197380D02*
X157302000Y-78721190D01*
X157063904Y-79197380D02*
X157063904Y-78197380D01*
X157444857Y-78197380D01*
X157540095Y-78245000D01*
X157587714Y-78292619D01*
X157635333Y-78387857D01*
X157635333Y-78530714D01*
X157587714Y-78625952D01*
X157540095Y-78673571D01*
X157444857Y-78721190D01*
X157063904Y-78721190D01*
X157968666Y-78197380D02*
X158587714Y-78197380D01*
X158254380Y-78578333D01*
X158397238Y-78578333D01*
X158492476Y-78625952D01*
X158540095Y-78673571D01*
X158587714Y-78768809D01*
X158587714Y-79006904D01*
X158540095Y-79102142D01*
X158492476Y-79149761D01*
X158397238Y-79197380D01*
X158111523Y-79197380D01*
X158016285Y-79149761D01*
X157968666Y-79102142D01*
%TO.C,R2*%
X116038333Y-98622380D02*
X115705000Y-98146190D01*
X115466904Y-98622380D02*
X115466904Y-97622380D01*
X115847857Y-97622380D01*
X115943095Y-97670000D01*
X115990714Y-97717619D01*
X116038333Y-97812857D01*
X116038333Y-97955714D01*
X115990714Y-98050952D01*
X115943095Y-98098571D01*
X115847857Y-98146190D01*
X115466904Y-98146190D01*
X116419285Y-97717619D02*
X116466904Y-97670000D01*
X116562142Y-97622380D01*
X116800238Y-97622380D01*
X116895476Y-97670000D01*
X116943095Y-97717619D01*
X116990714Y-97812857D01*
X116990714Y-97908095D01*
X116943095Y-98050952D01*
X116371666Y-98622380D01*
X116990714Y-98622380D01*
%TO.C,H3*%
X177038095Y-114362380D02*
X177038095Y-113362380D01*
X177038095Y-113838571D02*
X177609523Y-113838571D01*
X177609523Y-114362380D02*
X177609523Y-113362380D01*
X177990476Y-113362380D02*
X178609523Y-113362380D01*
X178276190Y-113743333D01*
X178419047Y-113743333D01*
X178514285Y-113790952D01*
X178561904Y-113838571D01*
X178609523Y-113933809D01*
X178609523Y-114171904D01*
X178561904Y-114267142D01*
X178514285Y-114314761D01*
X178419047Y-114362380D01*
X178133333Y-114362380D01*
X178038095Y-114314761D01*
X177990476Y-114267142D01*
%TO.C,J7*%
X120583142Y-69455380D02*
X120106952Y-69455380D01*
X120106952Y-68455380D01*
X120916476Y-68931571D02*
X121249809Y-68931571D01*
X121392666Y-69455380D02*
X120916476Y-69455380D01*
X120916476Y-68455380D01*
X121392666Y-68455380D01*
X121821238Y-69455380D02*
X121821238Y-68455380D01*
X122059333Y-68455380D01*
X122202190Y-68503000D01*
X122297428Y-68598238D01*
X122345047Y-68693476D01*
X122392666Y-68883952D01*
X122392666Y-69026809D01*
X122345047Y-69217285D01*
X122297428Y-69312523D01*
X122202190Y-69407761D01*
X122059333Y-69455380D01*
X121821238Y-69455380D01*
X121916714Y-61116761D02*
X122059571Y-61164380D01*
X122297666Y-61164380D01*
X122392904Y-61116761D01*
X122440523Y-61069142D01*
X122488142Y-60973904D01*
X122488142Y-60878666D01*
X122440523Y-60783428D01*
X122392904Y-60735809D01*
X122297666Y-60688190D01*
X122107190Y-60640571D01*
X122011952Y-60592952D01*
X121964333Y-60545333D01*
X121916714Y-60450095D01*
X121916714Y-60354857D01*
X121964333Y-60259619D01*
X122011952Y-60212000D01*
X122107190Y-60164380D01*
X122345285Y-60164380D01*
X122488142Y-60212000D01*
X122916714Y-61164380D02*
X122916714Y-60164380D01*
X123154809Y-60164380D01*
X123297666Y-60212000D01*
X123392904Y-60307238D01*
X123440523Y-60402476D01*
X123488142Y-60592952D01*
X123488142Y-60735809D01*
X123440523Y-60926285D01*
X123392904Y-61021523D01*
X123297666Y-61116761D01*
X123154809Y-61164380D01*
X122916714Y-61164380D01*
X123869095Y-60878666D02*
X124345285Y-60878666D01*
X123773857Y-61164380D02*
X124107190Y-60164380D01*
X124440523Y-61164380D01*
X115384095Y-60212000D02*
X115288857Y-60164380D01*
X115146000Y-60164380D01*
X115003142Y-60212000D01*
X114907904Y-60307238D01*
X114860285Y-60402476D01*
X114812666Y-60592952D01*
X114812666Y-60735809D01*
X114860285Y-60926285D01*
X114907904Y-61021523D01*
X115003142Y-61116761D01*
X115146000Y-61164380D01*
X115241238Y-61164380D01*
X115384095Y-61116761D01*
X115431714Y-61069142D01*
X115431714Y-60735809D01*
X115241238Y-60735809D01*
X115860285Y-61164380D02*
X115860285Y-60164380D01*
X116431714Y-61164380D01*
X116431714Y-60164380D01*
X116907904Y-61164380D02*
X116907904Y-60164380D01*
X117146000Y-60164380D01*
X117288857Y-60212000D01*
X117384095Y-60307238D01*
X117431714Y-60402476D01*
X117479333Y-60592952D01*
X117479333Y-60735809D01*
X117431714Y-60926285D01*
X117384095Y-61021523D01*
X117288857Y-61116761D01*
X117146000Y-61164380D01*
X116907904Y-61164380D01*
X118368666Y-60164380D02*
X118702000Y-61164380D01*
X119035333Y-60164380D01*
X119940095Y-61069142D02*
X119892476Y-61116761D01*
X119749619Y-61164380D01*
X119654380Y-61164380D01*
X119511523Y-61116761D01*
X119416285Y-61021523D01*
X119368666Y-60926285D01*
X119321047Y-60735809D01*
X119321047Y-60592952D01*
X119368666Y-60402476D01*
X119416285Y-60307238D01*
X119511523Y-60212000D01*
X119654380Y-60164380D01*
X119749619Y-60164380D01*
X119892476Y-60212000D01*
X119940095Y-60259619D01*
X120940095Y-61069142D02*
X120892476Y-61116761D01*
X120749619Y-61164380D01*
X120654380Y-61164380D01*
X120511523Y-61116761D01*
X120416285Y-61021523D01*
X120368666Y-60926285D01*
X120321047Y-60735809D01*
X120321047Y-60592952D01*
X120368666Y-60402476D01*
X120416285Y-60307238D01*
X120511523Y-60212000D01*
X120654380Y-60164380D01*
X120749619Y-60164380D01*
X120892476Y-60212000D01*
X120940095Y-60259619D01*
X125242523Y-61116761D02*
X125385380Y-61164380D01*
X125623476Y-61164380D01*
X125718714Y-61116761D01*
X125766333Y-61069142D01*
X125813952Y-60973904D01*
X125813952Y-60878666D01*
X125766333Y-60783428D01*
X125718714Y-60735809D01*
X125623476Y-60688190D01*
X125433000Y-60640571D01*
X125337761Y-60592952D01*
X125290142Y-60545333D01*
X125242523Y-60450095D01*
X125242523Y-60354857D01*
X125290142Y-60259619D01*
X125337761Y-60212000D01*
X125433000Y-60164380D01*
X125671095Y-60164380D01*
X125813952Y-60212000D01*
X126813952Y-61069142D02*
X126766333Y-61116761D01*
X126623476Y-61164380D01*
X126528238Y-61164380D01*
X126385380Y-61116761D01*
X126290142Y-61021523D01*
X126242523Y-60926285D01*
X126194904Y-60735809D01*
X126194904Y-60592952D01*
X126242523Y-60402476D01*
X126290142Y-60307238D01*
X126385380Y-60212000D01*
X126528238Y-60164380D01*
X126623476Y-60164380D01*
X126766333Y-60212000D01*
X126813952Y-60259619D01*
X127718714Y-61164380D02*
X127242523Y-61164380D01*
X127242523Y-60164380D01*
%TO.C,J6*%
X172799523Y-68236571D02*
X172942380Y-68284190D01*
X172990000Y-68331809D01*
X173037619Y-68427047D01*
X173037619Y-68569904D01*
X172990000Y-68665142D01*
X172942380Y-68712761D01*
X172847142Y-68760380D01*
X172466190Y-68760380D01*
X172466190Y-67760380D01*
X172799523Y-67760380D01*
X172894761Y-67808000D01*
X172942380Y-67855619D01*
X172990000Y-67950857D01*
X172990000Y-68046095D01*
X172942380Y-68141333D01*
X172894761Y-68188952D01*
X172799523Y-68236571D01*
X172466190Y-68236571D01*
X173894761Y-68093714D02*
X173894761Y-68760380D01*
X173466190Y-68093714D02*
X173466190Y-68617523D01*
X173513809Y-68712761D01*
X173609047Y-68760380D01*
X173751904Y-68760380D01*
X173847142Y-68712761D01*
X173894761Y-68665142D01*
X174275714Y-68093714D02*
X174799523Y-68093714D01*
X174275714Y-68760380D01*
X174799523Y-68760380D01*
X175085238Y-68093714D02*
X175609047Y-68093714D01*
X175085238Y-68760380D01*
X175609047Y-68760380D01*
X175133047Y-60469428D02*
X175894952Y-60469428D01*
X172085047Y-60342428D02*
X172846952Y-60342428D01*
X172466000Y-60723380D02*
X172466000Y-59961476D01*
%TO.C,C8*%
X127536333Y-111713142D02*
X127488714Y-111760761D01*
X127345857Y-111808380D01*
X127250619Y-111808380D01*
X127107761Y-111760761D01*
X127012523Y-111665523D01*
X126964904Y-111570285D01*
X126917285Y-111379809D01*
X126917285Y-111236952D01*
X126964904Y-111046476D01*
X127012523Y-110951238D01*
X127107761Y-110856000D01*
X127250619Y-110808380D01*
X127345857Y-110808380D01*
X127488714Y-110856000D01*
X127536333Y-110903619D01*
X128107761Y-111236952D02*
X128012523Y-111189333D01*
X127964904Y-111141714D01*
X127917285Y-111046476D01*
X127917285Y-110998857D01*
X127964904Y-110903619D01*
X128012523Y-110856000D01*
X128107761Y-110808380D01*
X128298238Y-110808380D01*
X128393476Y-110856000D01*
X128441095Y-110903619D01*
X128488714Y-110998857D01*
X128488714Y-111046476D01*
X128441095Y-111141714D01*
X128393476Y-111189333D01*
X128298238Y-111236952D01*
X128107761Y-111236952D01*
X128012523Y-111284571D01*
X127964904Y-111332190D01*
X127917285Y-111427428D01*
X127917285Y-111617904D01*
X127964904Y-111713142D01*
X128012523Y-111760761D01*
X128107761Y-111808380D01*
X128298238Y-111808380D01*
X128393476Y-111760761D01*
X128441095Y-111713142D01*
X128488714Y-111617904D01*
X128488714Y-111427428D01*
X128441095Y-111332190D01*
X128393476Y-111284571D01*
X128298238Y-111236952D01*
%TO.C,Q1*%
X109759761Y-98822619D02*
X109664523Y-98775000D01*
X109569285Y-98679761D01*
X109426428Y-98536904D01*
X109331190Y-98489285D01*
X109235952Y-98489285D01*
X109283571Y-98727380D02*
X109188333Y-98679761D01*
X109093095Y-98584523D01*
X109045476Y-98394047D01*
X109045476Y-98060714D01*
X109093095Y-97870238D01*
X109188333Y-97775000D01*
X109283571Y-97727380D01*
X109474047Y-97727380D01*
X109569285Y-97775000D01*
X109664523Y-97870238D01*
X109712142Y-98060714D01*
X109712142Y-98394047D01*
X109664523Y-98584523D01*
X109569285Y-98679761D01*
X109474047Y-98727380D01*
X109283571Y-98727380D01*
X110664523Y-98727380D02*
X110093095Y-98727380D01*
X110378809Y-98727380D02*
X110378809Y-97727380D01*
X110283571Y-97870238D01*
X110188333Y-97965476D01*
X110093095Y-98013095D01*
%TO.C,C5*%
X144702833Y-101553142D02*
X144655214Y-101600761D01*
X144512357Y-101648380D01*
X144417119Y-101648380D01*
X144274261Y-101600761D01*
X144179023Y-101505523D01*
X144131404Y-101410285D01*
X144083785Y-101219809D01*
X144083785Y-101076952D01*
X144131404Y-100886476D01*
X144179023Y-100791238D01*
X144274261Y-100696000D01*
X144417119Y-100648380D01*
X144512357Y-100648380D01*
X144655214Y-100696000D01*
X144702833Y-100743619D01*
X145607595Y-100648380D02*
X145131404Y-100648380D01*
X145083785Y-101124571D01*
X145131404Y-101076952D01*
X145226642Y-101029333D01*
X145464738Y-101029333D01*
X145559976Y-101076952D01*
X145607595Y-101124571D01*
X145655214Y-101219809D01*
X145655214Y-101457904D01*
X145607595Y-101553142D01*
X145559976Y-101600761D01*
X145464738Y-101648380D01*
X145226642Y-101648380D01*
X145131404Y-101600761D01*
X145083785Y-101553142D01*
%TO.C,R4*%
X162969333Y-107393380D02*
X162636000Y-106917190D01*
X162397904Y-107393380D02*
X162397904Y-106393380D01*
X162778857Y-106393380D01*
X162874095Y-106441000D01*
X162921714Y-106488619D01*
X162969333Y-106583857D01*
X162969333Y-106726714D01*
X162921714Y-106821952D01*
X162874095Y-106869571D01*
X162778857Y-106917190D01*
X162397904Y-106917190D01*
X163826476Y-106726714D02*
X163826476Y-107393380D01*
X163588380Y-106345761D02*
X163350285Y-107060047D01*
X163969333Y-107060047D01*
%TO.C,L1*%
X128171333Y-102032380D02*
X127695142Y-102032380D01*
X127695142Y-101032380D01*
X129028476Y-102032380D02*
X128457047Y-102032380D01*
X128742761Y-102032380D02*
X128742761Y-101032380D01*
X128647523Y-101175238D01*
X128552285Y-101270476D01*
X128457047Y-101318095D01*
%TO.C,C7*%
X151666333Y-103331142D02*
X151618714Y-103378761D01*
X151475857Y-103426380D01*
X151380619Y-103426380D01*
X151237761Y-103378761D01*
X151142523Y-103283523D01*
X151094904Y-103188285D01*
X151047285Y-102997809D01*
X151047285Y-102854952D01*
X151094904Y-102664476D01*
X151142523Y-102569238D01*
X151237761Y-102474000D01*
X151380619Y-102426380D01*
X151475857Y-102426380D01*
X151618714Y-102474000D01*
X151666333Y-102521619D01*
X151999666Y-102426380D02*
X152666333Y-102426380D01*
X152237761Y-103426380D01*
%TO.C,R6*%
X156143333Y-106122380D02*
X155810000Y-105646190D01*
X155571904Y-106122380D02*
X155571904Y-105122380D01*
X155952857Y-105122380D01*
X156048095Y-105170000D01*
X156095714Y-105217619D01*
X156143333Y-105312857D01*
X156143333Y-105455714D01*
X156095714Y-105550952D01*
X156048095Y-105598571D01*
X155952857Y-105646190D01*
X155571904Y-105646190D01*
X157000476Y-105122380D02*
X156810000Y-105122380D01*
X156714761Y-105170000D01*
X156667142Y-105217619D01*
X156571904Y-105360476D01*
X156524285Y-105550952D01*
X156524285Y-105931904D01*
X156571904Y-106027142D01*
X156619523Y-106074761D01*
X156714761Y-106122380D01*
X156905238Y-106122380D01*
X157000476Y-106074761D01*
X157048095Y-106027142D01*
X157095714Y-105931904D01*
X157095714Y-105693809D01*
X157048095Y-105598571D01*
X157000476Y-105550952D01*
X156905238Y-105503333D01*
X156714761Y-105503333D01*
X156619523Y-105550952D01*
X156571904Y-105598571D01*
X156524285Y-105693809D01*
%TO.C,J8*%
X101417619Y-69322380D02*
X101417619Y-68322380D01*
X101417619Y-68798571D02*
X101989047Y-68798571D01*
X101989047Y-69322380D02*
X101989047Y-68322380D01*
X102846190Y-69274761D02*
X102750952Y-69322380D01*
X102560476Y-69322380D01*
X102465238Y-69274761D01*
X102417619Y-69179523D01*
X102417619Y-68798571D01*
X102465238Y-68703333D01*
X102560476Y-68655714D01*
X102750952Y-68655714D01*
X102846190Y-68703333D01*
X102893809Y-68798571D01*
X102893809Y-68893809D01*
X102417619Y-68989047D01*
X103750952Y-69322380D02*
X103750952Y-68798571D01*
X103703333Y-68703333D01*
X103608095Y-68655714D01*
X103417619Y-68655714D01*
X103322380Y-68703333D01*
X103750952Y-69274761D02*
X103655714Y-69322380D01*
X103417619Y-69322380D01*
X103322380Y-69274761D01*
X103274761Y-69179523D01*
X103274761Y-69084285D01*
X103322380Y-68989047D01*
X103417619Y-68941428D01*
X103655714Y-68941428D01*
X103750952Y-68893809D01*
X104084285Y-68655714D02*
X104465238Y-68655714D01*
X104227142Y-68322380D02*
X104227142Y-69179523D01*
X104274761Y-69274761D01*
X104370000Y-69322380D01*
X104465238Y-69322380D01*
X103759047Y-60797428D02*
X104520952Y-60797428D01*
X101219047Y-60797428D02*
X101980952Y-60797428D01*
X101600000Y-61178380D02*
X101600000Y-60416476D01*
%TO.C,J5*%
X137561666Y-69280761D02*
X137704523Y-69328380D01*
X137942619Y-69328380D01*
X138037857Y-69280761D01*
X138085476Y-69233142D01*
X138133095Y-69137904D01*
X138133095Y-69042666D01*
X138085476Y-68947428D01*
X138037857Y-68899809D01*
X137942619Y-68852190D01*
X137752142Y-68804571D01*
X137656904Y-68756952D01*
X137609285Y-68709333D01*
X137561666Y-68614095D01*
X137561666Y-68518857D01*
X137609285Y-68423619D01*
X137656904Y-68376000D01*
X137752142Y-68328380D01*
X137990238Y-68328380D01*
X138133095Y-68376000D01*
X138942619Y-69280761D02*
X138847380Y-69328380D01*
X138656904Y-69328380D01*
X138561666Y-69280761D01*
X138514047Y-69185523D01*
X138514047Y-68804571D01*
X138561666Y-68709333D01*
X138656904Y-68661714D01*
X138847380Y-68661714D01*
X138942619Y-68709333D01*
X138990238Y-68804571D01*
X138990238Y-68899809D01*
X138514047Y-68995047D01*
X139418809Y-68661714D02*
X139418809Y-69328380D01*
X139418809Y-68756952D02*
X139466428Y-68709333D01*
X139561666Y-68661714D01*
X139704523Y-68661714D01*
X139799761Y-68709333D01*
X139847380Y-68804571D01*
X139847380Y-69328380D01*
X140275952Y-69280761D02*
X140371190Y-69328380D01*
X140561666Y-69328380D01*
X140656904Y-69280761D01*
X140704523Y-69185523D01*
X140704523Y-69137904D01*
X140656904Y-69042666D01*
X140561666Y-68995047D01*
X140418809Y-68995047D01*
X140323571Y-68947428D01*
X140275952Y-68852190D01*
X140275952Y-68804571D01*
X140323571Y-68709333D01*
X140418809Y-68661714D01*
X140561666Y-68661714D01*
X140656904Y-68709333D01*
X141275952Y-69328380D02*
X141180714Y-69280761D01*
X141133095Y-69233142D01*
X141085476Y-69137904D01*
X141085476Y-68852190D01*
X141133095Y-68756952D01*
X141180714Y-68709333D01*
X141275952Y-68661714D01*
X141418809Y-68661714D01*
X141514047Y-68709333D01*
X141561666Y-68756952D01*
X141609285Y-68852190D01*
X141609285Y-69137904D01*
X141561666Y-69233142D01*
X141514047Y-69280761D01*
X141418809Y-69328380D01*
X141275952Y-69328380D01*
X142037857Y-69328380D02*
X142037857Y-68661714D01*
X142037857Y-68852190D02*
X142085476Y-68756952D01*
X142133095Y-68709333D01*
X142228333Y-68661714D01*
X142323571Y-68661714D01*
X144038523Y-60989761D02*
X144181380Y-61037380D01*
X144419476Y-61037380D01*
X144514714Y-60989761D01*
X144562333Y-60942142D01*
X144609952Y-60846904D01*
X144609952Y-60751666D01*
X144562333Y-60656428D01*
X144514714Y-60608809D01*
X144419476Y-60561190D01*
X144229000Y-60513571D01*
X144133761Y-60465952D01*
X144086142Y-60418333D01*
X144038523Y-60323095D01*
X144038523Y-60227857D01*
X144086142Y-60132619D01*
X144133761Y-60085000D01*
X144229000Y-60037380D01*
X144467095Y-60037380D01*
X144609952Y-60085000D01*
X145609952Y-60942142D02*
X145562333Y-60989761D01*
X145419476Y-61037380D01*
X145324238Y-61037380D01*
X145181380Y-60989761D01*
X145086142Y-60894523D01*
X145038523Y-60799285D01*
X144990904Y-60608809D01*
X144990904Y-60465952D01*
X145038523Y-60275476D01*
X145086142Y-60180238D01*
X145181380Y-60085000D01*
X145324238Y-60037380D01*
X145419476Y-60037380D01*
X145562333Y-60085000D01*
X145609952Y-60132619D01*
X146514714Y-61037380D02*
X146038523Y-61037380D01*
X146038523Y-60037380D01*
X133481666Y-60037380D02*
X133815000Y-61037380D01*
X134148333Y-60037380D01*
X135053095Y-60942142D02*
X135005476Y-60989761D01*
X134862619Y-61037380D01*
X134767380Y-61037380D01*
X134624523Y-60989761D01*
X134529285Y-60894523D01*
X134481666Y-60799285D01*
X134434047Y-60608809D01*
X134434047Y-60465952D01*
X134481666Y-60275476D01*
X134529285Y-60180238D01*
X134624523Y-60085000D01*
X134767380Y-60037380D01*
X134862619Y-60037380D01*
X135005476Y-60085000D01*
X135053095Y-60132619D01*
X136053095Y-60942142D02*
X136005476Y-60989761D01*
X135862619Y-61037380D01*
X135767380Y-61037380D01*
X135624523Y-60989761D01*
X135529285Y-60894523D01*
X135481666Y-60799285D01*
X135434047Y-60608809D01*
X135434047Y-60465952D01*
X135481666Y-60275476D01*
X135529285Y-60180238D01*
X135624523Y-60085000D01*
X135767380Y-60037380D01*
X135862619Y-60037380D01*
X136005476Y-60085000D01*
X136053095Y-60132619D01*
X137482095Y-60085000D02*
X137386857Y-60037380D01*
X137244000Y-60037380D01*
X137101142Y-60085000D01*
X137005904Y-60180238D01*
X136958285Y-60275476D01*
X136910666Y-60465952D01*
X136910666Y-60608809D01*
X136958285Y-60799285D01*
X137005904Y-60894523D01*
X137101142Y-60989761D01*
X137244000Y-61037380D01*
X137339238Y-61037380D01*
X137482095Y-60989761D01*
X137529714Y-60942142D01*
X137529714Y-60608809D01*
X137339238Y-60608809D01*
X137958285Y-61037380D02*
X137958285Y-60037380D01*
X138529714Y-61037380D01*
X138529714Y-60037380D01*
X139005904Y-61037380D02*
X139005904Y-60037380D01*
X139244000Y-60037380D01*
X139386857Y-60085000D01*
X139482095Y-60180238D01*
X139529714Y-60275476D01*
X139577333Y-60465952D01*
X139577333Y-60608809D01*
X139529714Y-60799285D01*
X139482095Y-60894523D01*
X139386857Y-60989761D01*
X139244000Y-61037380D01*
X139005904Y-61037380D01*
X140585714Y-60989761D02*
X140728571Y-61037380D01*
X140966666Y-61037380D01*
X141061904Y-60989761D01*
X141109523Y-60942142D01*
X141157142Y-60846904D01*
X141157142Y-60751666D01*
X141109523Y-60656428D01*
X141061904Y-60608809D01*
X140966666Y-60561190D01*
X140776190Y-60513571D01*
X140680952Y-60465952D01*
X140633333Y-60418333D01*
X140585714Y-60323095D01*
X140585714Y-60227857D01*
X140633333Y-60132619D01*
X140680952Y-60085000D01*
X140776190Y-60037380D01*
X141014285Y-60037380D01*
X141157142Y-60085000D01*
X141585714Y-61037380D02*
X141585714Y-60037380D01*
X141823809Y-60037380D01*
X141966666Y-60085000D01*
X142061904Y-60180238D01*
X142109523Y-60275476D01*
X142157142Y-60465952D01*
X142157142Y-60608809D01*
X142109523Y-60799285D01*
X142061904Y-60894523D01*
X141966666Y-60989761D01*
X141823809Y-61037380D01*
X141585714Y-61037380D01*
X142538095Y-60751666D02*
X143014285Y-60751666D01*
X142442857Y-61037380D02*
X142776190Y-60037380D01*
X143109523Y-61037380D01*
%TO.C,J3*%
X174498095Y-109418571D02*
X174164761Y-109418571D01*
X174164761Y-109942380D02*
X174164761Y-108942380D01*
X174640952Y-108942380D01*
X175450476Y-109942380D02*
X175450476Y-109418571D01*
X175402857Y-109323333D01*
X175307619Y-109275714D01*
X175117142Y-109275714D01*
X175021904Y-109323333D01*
X175450476Y-109894761D02*
X175355238Y-109942380D01*
X175117142Y-109942380D01*
X175021904Y-109894761D01*
X174974285Y-109799523D01*
X174974285Y-109704285D01*
X175021904Y-109609047D01*
X175117142Y-109561428D01*
X175355238Y-109561428D01*
X175450476Y-109513809D01*
X175926666Y-109275714D02*
X175926666Y-109942380D01*
X175926666Y-109370952D02*
X175974285Y-109323333D01*
X176069523Y-109275714D01*
X176212380Y-109275714D01*
X176307619Y-109323333D01*
X176355238Y-109418571D01*
X176355238Y-109942380D01*
X176149047Y-101397428D02*
X176910952Y-101397428D01*
X173609047Y-101270428D02*
X174370952Y-101270428D01*
X173990000Y-101651380D02*
X173990000Y-100889476D01*
%TO.C,J1*%
X107037619Y-68302380D02*
X107370952Y-69302380D01*
X107704285Y-68302380D01*
X108037619Y-69302380D02*
X108037619Y-68635714D01*
X108037619Y-68302380D02*
X107990000Y-68350000D01*
X108037619Y-68397619D01*
X108085238Y-68350000D01*
X108037619Y-68302380D01*
X108037619Y-68397619D01*
X108513809Y-68635714D02*
X108513809Y-69302380D01*
X108513809Y-68730952D02*
X108561428Y-68683333D01*
X108656666Y-68635714D01*
X108799523Y-68635714D01*
X108894761Y-68683333D01*
X108942380Y-68778571D01*
X108942380Y-69302380D01*
X110466190Y-69683333D02*
X110418571Y-69635714D01*
X110323333Y-69492857D01*
X110275714Y-69397619D01*
X110228095Y-69254761D01*
X110180476Y-69016666D01*
X110180476Y-68826190D01*
X110228095Y-68588095D01*
X110275714Y-68445238D01*
X110323333Y-68350000D01*
X110418571Y-68207142D01*
X110466190Y-68159523D01*
X110751904Y-68302380D02*
X111370952Y-68302380D01*
X111037619Y-68683333D01*
X111180476Y-68683333D01*
X111275714Y-68730952D01*
X111323333Y-68778571D01*
X111370952Y-68873809D01*
X111370952Y-69111904D01*
X111323333Y-69207142D01*
X111275714Y-69254761D01*
X111180476Y-69302380D01*
X110894761Y-69302380D01*
X110799523Y-69254761D01*
X110751904Y-69207142D01*
X111990000Y-68302380D02*
X112085238Y-68302380D01*
X112180476Y-68350000D01*
X112228095Y-68397619D01*
X112275714Y-68492857D01*
X112323333Y-68683333D01*
X112323333Y-68921428D01*
X112275714Y-69111904D01*
X112228095Y-69207142D01*
X112180476Y-69254761D01*
X112085238Y-69302380D01*
X111990000Y-69302380D01*
X111894761Y-69254761D01*
X111847142Y-69207142D01*
X111799523Y-69111904D01*
X111751904Y-68921428D01*
X111751904Y-68683333D01*
X111799523Y-68492857D01*
X111847142Y-68397619D01*
X111894761Y-68350000D01*
X111990000Y-68302380D01*
X112609047Y-68302380D02*
X112942380Y-69302380D01*
X113275714Y-68302380D01*
X113513809Y-69683333D02*
X113561428Y-69635714D01*
X113656666Y-69492857D01*
X113704285Y-69397619D01*
X113751904Y-69254761D01*
X113799523Y-69016666D01*
X113799523Y-68826190D01*
X113751904Y-68588095D01*
X113704285Y-68445238D01*
X113656666Y-68350000D01*
X113561428Y-68207142D01*
X113513809Y-68159523D01*
X111379047Y-60757428D02*
X112140952Y-60757428D01*
X111760000Y-61138380D02*
X111760000Y-60376476D01*
X108839047Y-60757428D02*
X109600952Y-60757428D01*
%TO.C,D1*%
X163667904Y-75547380D02*
X163667904Y-74547380D01*
X163906000Y-74547380D01*
X164048857Y-74595000D01*
X164144095Y-74690238D01*
X164191714Y-74785476D01*
X164239333Y-74975952D01*
X164239333Y-75118809D01*
X164191714Y-75309285D01*
X164144095Y-75404523D01*
X164048857Y-75499761D01*
X163906000Y-75547380D01*
X163667904Y-75547380D01*
X165191714Y-75547380D02*
X164620285Y-75547380D01*
X164906000Y-75547380D02*
X164906000Y-74547380D01*
X164810761Y-74690238D01*
X164715523Y-74785476D01*
X164620285Y-74833095D01*
%TO.C,U2*%
X136593095Y-82562380D02*
X136593095Y-83371904D01*
X136640714Y-83467142D01*
X136688333Y-83514761D01*
X136783571Y-83562380D01*
X136974047Y-83562380D01*
X137069285Y-83514761D01*
X137116904Y-83467142D01*
X137164523Y-83371904D01*
X137164523Y-82562380D01*
X137593095Y-82657619D02*
X137640714Y-82610000D01*
X137735952Y-82562380D01*
X137974047Y-82562380D01*
X138069285Y-82610000D01*
X138116904Y-82657619D01*
X138164523Y-82752857D01*
X138164523Y-82848095D01*
X138116904Y-82990952D01*
X137545476Y-83562380D01*
X138164523Y-83562380D01*
%TO.C,R5*%
X153952333Y-113997380D02*
X153619000Y-113521190D01*
X153380904Y-113997380D02*
X153380904Y-112997380D01*
X153761857Y-112997380D01*
X153857095Y-113045000D01*
X153904714Y-113092619D01*
X153952333Y-113187857D01*
X153952333Y-113330714D01*
X153904714Y-113425952D01*
X153857095Y-113473571D01*
X153761857Y-113521190D01*
X153380904Y-113521190D01*
X154857095Y-112997380D02*
X154380904Y-112997380D01*
X154333285Y-113473571D01*
X154380904Y-113425952D01*
X154476142Y-113378333D01*
X154714238Y-113378333D01*
X154809476Y-113425952D01*
X154857095Y-113473571D01*
X154904714Y-113568809D01*
X154904714Y-113806904D01*
X154857095Y-113902142D01*
X154809476Y-113949761D01*
X154714238Y-113997380D01*
X154476142Y-113997380D01*
X154380904Y-113949761D01*
X154333285Y-113902142D01*
%TO.C,C3*%
X158143333Y-86694142D02*
X158095714Y-86741761D01*
X157952857Y-86789380D01*
X157857619Y-86789380D01*
X157714761Y-86741761D01*
X157619523Y-86646523D01*
X157571904Y-86551285D01*
X157524285Y-86360809D01*
X157524285Y-86217952D01*
X157571904Y-86027476D01*
X157619523Y-85932238D01*
X157714761Y-85837000D01*
X157857619Y-85789380D01*
X157952857Y-85789380D01*
X158095714Y-85837000D01*
X158143333Y-85884619D01*
X158476666Y-85789380D02*
X159095714Y-85789380D01*
X158762380Y-86170333D01*
X158905238Y-86170333D01*
X159000476Y-86217952D01*
X159048095Y-86265571D01*
X159095714Y-86360809D01*
X159095714Y-86598904D01*
X159048095Y-86694142D01*
X159000476Y-86741761D01*
X158905238Y-86789380D01*
X158619523Y-86789380D01*
X158524285Y-86741761D01*
X158476666Y-86694142D01*
%TO.C,C1*%
X118578333Y-91387142D02*
X118530714Y-91434761D01*
X118387857Y-91482380D01*
X118292619Y-91482380D01*
X118149761Y-91434761D01*
X118054523Y-91339523D01*
X118006904Y-91244285D01*
X117959285Y-91053809D01*
X117959285Y-90910952D01*
X118006904Y-90720476D01*
X118054523Y-90625238D01*
X118149761Y-90530000D01*
X118292619Y-90482380D01*
X118387857Y-90482380D01*
X118530714Y-90530000D01*
X118578333Y-90577619D01*
X119530714Y-91482380D02*
X118959285Y-91482380D01*
X119245000Y-91482380D02*
X119245000Y-90482380D01*
X119149761Y-90625238D01*
X119054523Y-90720476D01*
X118959285Y-90768095D01*
%TO.C,C6*%
X150501833Y-108030142D02*
X150454214Y-108077761D01*
X150311357Y-108125380D01*
X150216119Y-108125380D01*
X150073261Y-108077761D01*
X149978023Y-107982523D01*
X149930404Y-107887285D01*
X149882785Y-107696809D01*
X149882785Y-107553952D01*
X149930404Y-107363476D01*
X149978023Y-107268238D01*
X150073261Y-107173000D01*
X150216119Y-107125380D01*
X150311357Y-107125380D01*
X150454214Y-107173000D01*
X150501833Y-107220619D01*
X151358976Y-107125380D02*
X151168500Y-107125380D01*
X151073261Y-107173000D01*
X151025642Y-107220619D01*
X150930404Y-107363476D01*
X150882785Y-107553952D01*
X150882785Y-107934904D01*
X150930404Y-108030142D01*
X150978023Y-108077761D01*
X151073261Y-108125380D01*
X151263738Y-108125380D01*
X151358976Y-108077761D01*
X151406595Y-108030142D01*
X151454214Y-107934904D01*
X151454214Y-107696809D01*
X151406595Y-107601571D01*
X151358976Y-107553952D01*
X151263738Y-107506333D01*
X151073261Y-107506333D01*
X150978023Y-107553952D01*
X150930404Y-107601571D01*
X150882785Y-107696809D01*
%TO.C,J4*%
X159624809Y-71333880D02*
X159624809Y-70333880D01*
X160053380Y-71286261D02*
X160196238Y-71333880D01*
X160434333Y-71333880D01*
X160529571Y-71286261D01*
X160577190Y-71238642D01*
X160624809Y-71143404D01*
X160624809Y-71048166D01*
X160577190Y-70952928D01*
X160529571Y-70905309D01*
X160434333Y-70857690D01*
X160243857Y-70810071D01*
X160148619Y-70762452D01*
X160101000Y-70714833D01*
X160053380Y-70619595D01*
X160053380Y-70524357D01*
X160101000Y-70429119D01*
X160148619Y-70381500D01*
X160243857Y-70333880D01*
X160481952Y-70333880D01*
X160624809Y-70381500D01*
X161053380Y-71333880D02*
X161053380Y-70333880D01*
X161434333Y-70333880D01*
X161529571Y-70381500D01*
X161577190Y-70429119D01*
X161624809Y-70524357D01*
X161624809Y-70667214D01*
X161577190Y-70762452D01*
X161529571Y-70810071D01*
X161434333Y-70857690D01*
X161053380Y-70857690D01*
%TO.C,H1*%
X105918095Y-60152880D02*
X105918095Y-59152880D01*
X105918095Y-59629071D02*
X106489523Y-59629071D01*
X106489523Y-60152880D02*
X106489523Y-59152880D01*
X107489523Y-60152880D02*
X106918095Y-60152880D01*
X107203809Y-60152880D02*
X107203809Y-59152880D01*
X107108571Y-59295738D01*
X107013333Y-59390976D01*
X106918095Y-59438595D01*
%TO.C,U1*%
X113538095Y-78677380D02*
X113538095Y-79486904D01*
X113585714Y-79582142D01*
X113633333Y-79629761D01*
X113728571Y-79677380D01*
X113919047Y-79677380D01*
X114014285Y-79629761D01*
X114061904Y-79582142D01*
X114109523Y-79486904D01*
X114109523Y-78677380D01*
X115109523Y-79677380D02*
X114538095Y-79677380D01*
X114823809Y-79677380D02*
X114823809Y-78677380D01*
X114728571Y-78820238D01*
X114633333Y-78915476D01*
X114538095Y-78963095D01*
%TO.C,H4*%
X105918095Y-114362380D02*
X105918095Y-113362380D01*
X105918095Y-113838571D02*
X106489523Y-113838571D01*
X106489523Y-114362380D02*
X106489523Y-113362380D01*
X107394285Y-113695714D02*
X107394285Y-114362380D01*
X107156190Y-113314761D02*
X106918095Y-114029047D01*
X107537142Y-114029047D01*
%TO.C,U3*%
X144891000Y-110715000D02*
X144891000Y-110860000D01*
X140741000Y-110715000D02*
X144891000Y-110715000D01*
X140741000Y-115865000D02*
X140741000Y-115720000D01*
X140741000Y-110715000D02*
X140741000Y-110765000D01*
X140741000Y-115865000D02*
X144891000Y-115865000D01*
X140741000Y-110765000D02*
X139341000Y-110765000D01*
X144891000Y-115865000D02*
X144891000Y-115720000D01*
D12*
%TO.C,J2*%
X180590000Y-67532000D02*
X180590000Y-66532000D01*
X180340000Y-67532000D02*
X180340000Y-66532000D01*
X181140000Y-62112000D02*
X181140000Y-61512000D01*
X183680000Y-62112000D02*
X183680000Y-61512000D01*
X182080000Y-62112000D02*
X183680000Y-62112000D01*
X178670000Y-62542000D02*
X178670000Y-66542000D01*
X180340000Y-66532000D02*
X180590000Y-66002000D01*
X182080000Y-61512000D02*
X182080000Y-62112000D01*
X182630000Y-66002000D02*
X182880000Y-66532000D01*
X178960000Y-61512000D02*
X178960000Y-67532000D01*
X182630000Y-67532000D02*
X182630000Y-66532000D01*
X184260000Y-67532000D02*
X184260000Y-61512000D01*
X180590000Y-66002000D02*
X182630000Y-66002000D01*
X184260000Y-61512000D02*
X178960000Y-61512000D01*
X178960000Y-67532000D02*
X184260000Y-67532000D01*
X179540000Y-62112000D02*
X181140000Y-62112000D01*
X180340000Y-66532000D02*
X182880000Y-66532000D01*
X182880000Y-66532000D02*
X182880000Y-67532000D01*
X179540000Y-61512000D02*
X179540000Y-62112000D01*
%TO.C,C2*%
X120388748Y-88165000D02*
X120911252Y-88165000D01*
X120388748Y-89635000D02*
X120911252Y-89635000D01*
%TO.C,R7*%
X160823064Y-82910000D02*
X160368936Y-82910000D01*
X160823064Y-81440000D02*
X160368936Y-81440000D01*
%TO.C,R1*%
X164813936Y-88752000D02*
X165268064Y-88752000D01*
X164813936Y-87282000D02*
X165268064Y-87282000D01*
%TO.C,C4*%
X133283748Y-113771000D02*
X133806252Y-113771000D01*
X133283748Y-112301000D02*
X133806252Y-112301000D01*
%TO.C,R3*%
X158029064Y-76360000D02*
X157574936Y-76360000D01*
X158029064Y-77830000D02*
X157574936Y-77830000D01*
%TO.C,R2*%
X116432064Y-97255000D02*
X115977936Y-97255000D01*
X116432064Y-95785000D02*
X115977936Y-95785000D01*
%TO.C,J7*%
X117416000Y-67913000D02*
X117416000Y-66913000D01*
X121696000Y-62493000D02*
X123296000Y-62493000D01*
X116616000Y-61893000D02*
X116616000Y-62493000D01*
X124786000Y-66383000D02*
X125036000Y-66913000D01*
X117416000Y-66913000D02*
X125036000Y-66913000D01*
X126416000Y-61893000D02*
X116036000Y-61893000D01*
X118216000Y-62493000D02*
X118216000Y-61893000D01*
X123296000Y-62493000D02*
X123296000Y-61893000D01*
X124236000Y-61893000D02*
X124236000Y-62493000D01*
X125036000Y-66913000D02*
X125036000Y-67913000D01*
X125836000Y-62493000D02*
X125836000Y-61893000D01*
X116616000Y-62493000D02*
X118216000Y-62493000D01*
X119156000Y-61893000D02*
X119156000Y-62493000D01*
X126416000Y-67913000D02*
X126416000Y-61893000D01*
X116036000Y-67913000D02*
X126416000Y-67913000D01*
X120756000Y-62493000D02*
X120756000Y-61893000D01*
X117416000Y-66913000D02*
X117666000Y-66383000D01*
X119156000Y-62493000D02*
X120756000Y-62493000D01*
X124786000Y-67913000D02*
X124786000Y-66913000D01*
X121696000Y-61893000D02*
X121696000Y-62493000D01*
X124236000Y-62493000D02*
X125836000Y-62493000D01*
X117666000Y-66383000D02*
X124786000Y-66383000D01*
X116036000Y-61893000D02*
X116036000Y-67913000D01*
X115746000Y-62923000D02*
X115746000Y-66923000D01*
X117666000Y-67913000D02*
X117666000Y-66913000D01*
%TO.C,J6*%
X173520000Y-61798000D02*
X173520000Y-61198000D01*
X176640000Y-67218000D02*
X176640000Y-61198000D01*
X171050000Y-62228000D02*
X171050000Y-66228000D01*
X171920000Y-61798000D02*
X173520000Y-61798000D01*
X171340000Y-67218000D02*
X176640000Y-67218000D01*
X175260000Y-66218000D02*
X175260000Y-67218000D01*
X171920000Y-61198000D02*
X171920000Y-61798000D01*
X175010000Y-67218000D02*
X175010000Y-66218000D01*
X171340000Y-61198000D02*
X171340000Y-67218000D01*
X175010000Y-65688000D02*
X175260000Y-66218000D01*
X172720000Y-66218000D02*
X175260000Y-66218000D01*
X172970000Y-65688000D02*
X175010000Y-65688000D01*
X176640000Y-61198000D02*
X171340000Y-61198000D01*
X172720000Y-66218000D02*
X172970000Y-65688000D01*
X172970000Y-67218000D02*
X172970000Y-66218000D01*
X176060000Y-61798000D02*
X176060000Y-61198000D01*
X172720000Y-67218000D02*
X172720000Y-66218000D01*
X174460000Y-61198000D02*
X174460000Y-61798000D01*
X174460000Y-61798000D02*
X176060000Y-61798000D01*
%TO.C,C8*%
X127441748Y-113771000D02*
X127964252Y-113771000D01*
X127441748Y-112301000D02*
X127964252Y-112301000D01*
%TO.C,Q1*%
X108005000Y-99275000D02*
X108005000Y-100785000D01*
X104735000Y-100785000D02*
X114975000Y-100785000D01*
X104735000Y-99275000D02*
X114975000Y-99275000D01*
X111706000Y-99275000D02*
X111706000Y-100785000D01*
X104735000Y-99275000D02*
X104735000Y-103916000D01*
X114975000Y-99275000D02*
X114975000Y-103916000D01*
X104735000Y-103916000D02*
X114975000Y-103916000D01*
%TO.C,C5*%
X144608248Y-103611000D02*
X145130752Y-103611000D01*
X144608248Y-102141000D02*
X145130752Y-102141000D01*
%TO.C,R4*%
X162908936Y-109326000D02*
X163363064Y-109326000D01*
X162908936Y-107856000D02*
X163363064Y-107856000D01*
%TO.C,L1*%
X127927758Y-102570000D02*
X128748242Y-102570000D01*
X127927758Y-103690000D02*
X128748242Y-103690000D01*
%TO.C,C7*%
X151571748Y-103919000D02*
X152094252Y-103919000D01*
X151571748Y-105389000D02*
X152094252Y-105389000D01*
%TO.C,R6*%
X155939936Y-108183000D02*
X156394064Y-108183000D01*
X155939936Y-106713000D02*
X156394064Y-106713000D01*
%TO.C,J8*%
X103340000Y-61760000D02*
X103340000Y-62360000D01*
X104940000Y-62360000D02*
X104940000Y-61760000D01*
X104140000Y-66780000D02*
X104140000Y-67780000D01*
X100220000Y-67780000D02*
X105520000Y-67780000D01*
X105520000Y-67780000D02*
X105520000Y-61760000D01*
X101600000Y-66780000D02*
X101850000Y-66250000D01*
X100220000Y-61760000D02*
X100220000Y-67780000D01*
X103340000Y-62360000D02*
X104940000Y-62360000D01*
X99930000Y-62790000D02*
X99930000Y-66790000D01*
X102400000Y-62360000D02*
X102400000Y-61760000D01*
X101600000Y-67780000D02*
X101600000Y-66780000D01*
X101850000Y-67780000D02*
X101850000Y-66780000D01*
X101850000Y-66250000D02*
X103890000Y-66250000D01*
X103890000Y-66250000D02*
X104140000Y-66780000D01*
X105520000Y-61760000D02*
X100220000Y-61760000D01*
X103890000Y-67780000D02*
X103890000Y-66780000D01*
X101600000Y-66780000D02*
X104140000Y-66780000D01*
X100800000Y-61760000D02*
X100800000Y-62360000D01*
X100800000Y-62360000D02*
X102400000Y-62360000D01*
%TO.C,J5*%
X140365000Y-62366000D02*
X141965000Y-62366000D01*
X136335000Y-67786000D02*
X136335000Y-66786000D01*
X136885000Y-62366000D02*
X136885000Y-61766000D01*
X136085000Y-67786000D02*
X136085000Y-66786000D01*
X134415000Y-62796000D02*
X134415000Y-66796000D01*
X139425000Y-62366000D02*
X139425000Y-61766000D01*
X143455000Y-67786000D02*
X143455000Y-66786000D01*
X136335000Y-66256000D02*
X143455000Y-66256000D01*
X144505000Y-62366000D02*
X144505000Y-61766000D01*
X140365000Y-61766000D02*
X140365000Y-62366000D01*
X135285000Y-61766000D02*
X135285000Y-62366000D01*
X134705000Y-61766000D02*
X134705000Y-67786000D01*
X141965000Y-62366000D02*
X141965000Y-61766000D01*
X145085000Y-67786000D02*
X145085000Y-61766000D01*
X135285000Y-62366000D02*
X136885000Y-62366000D01*
X134705000Y-67786000D02*
X145085000Y-67786000D01*
X145085000Y-61766000D02*
X134705000Y-61766000D01*
X137825000Y-61766000D02*
X137825000Y-62366000D01*
X136085000Y-66786000D02*
X136335000Y-66256000D01*
X137825000Y-62366000D02*
X139425000Y-62366000D01*
X142905000Y-62366000D02*
X144505000Y-62366000D01*
X142905000Y-61766000D02*
X142905000Y-62366000D01*
X143455000Y-66256000D02*
X143705000Y-66786000D01*
X136085000Y-66786000D02*
X143705000Y-66786000D01*
X143705000Y-66786000D02*
X143705000Y-67786000D01*
%TO.C,J3*%
X172610000Y-108400000D02*
X177910000Y-108400000D01*
X173190000Y-102980000D02*
X174790000Y-102980000D01*
X173990000Y-107400000D02*
X174240000Y-106870000D01*
X177910000Y-102380000D02*
X172610000Y-102380000D01*
X174240000Y-106870000D02*
X176280000Y-106870000D01*
X173990000Y-108400000D02*
X173990000Y-107400000D01*
X176280000Y-108400000D02*
X176280000Y-107400000D01*
X172610000Y-102380000D02*
X172610000Y-108400000D01*
X175730000Y-102380000D02*
X175730000Y-102980000D01*
X173990000Y-107400000D02*
X176530000Y-107400000D01*
X177910000Y-108400000D02*
X177910000Y-102380000D01*
X175730000Y-102980000D02*
X177330000Y-102980000D01*
X176280000Y-106870000D02*
X176530000Y-107400000D01*
X177330000Y-102980000D02*
X177330000Y-102380000D01*
X172320000Y-103410000D02*
X172320000Y-107410000D01*
X174240000Y-108400000D02*
X174240000Y-107400000D01*
X174790000Y-102980000D02*
X174790000Y-102380000D01*
X173190000Y-102380000D02*
X173190000Y-102980000D01*
X176530000Y-107400000D02*
X176530000Y-108400000D01*
%TO.C,J1*%
X111510000Y-66230000D02*
X111760000Y-66760000D01*
X113140000Y-61740000D02*
X107840000Y-61740000D01*
X110020000Y-62340000D02*
X110020000Y-61740000D01*
X108420000Y-62340000D02*
X110020000Y-62340000D01*
X107840000Y-61740000D02*
X107840000Y-67760000D01*
X109470000Y-66230000D02*
X111510000Y-66230000D01*
X109220000Y-66760000D02*
X109470000Y-66230000D01*
X110960000Y-61740000D02*
X110960000Y-62340000D01*
X110960000Y-62340000D02*
X112560000Y-62340000D01*
X109220000Y-66760000D02*
X111760000Y-66760000D01*
X111760000Y-66760000D02*
X111760000Y-67760000D01*
X108420000Y-61740000D02*
X108420000Y-62340000D01*
X111510000Y-67760000D02*
X111510000Y-66760000D01*
X109220000Y-67760000D02*
X109220000Y-66760000D01*
X107840000Y-67760000D02*
X113140000Y-67760000D01*
X113140000Y-67760000D02*
X113140000Y-61740000D01*
X109470000Y-67760000D02*
X109470000Y-66760000D01*
X107550000Y-62770000D02*
X107550000Y-66770000D01*
X112560000Y-62340000D02*
X112560000Y-61740000D01*
%TO.C,D1*%
X162156000Y-78095000D02*
X166056000Y-78095000D01*
X162156000Y-76095000D02*
X162156000Y-78095000D01*
X162156000Y-76095000D02*
X166056000Y-76095000D01*
D11*
%TO.C,U2*%
X133730000Y-92785000D02*
X133730000Y-92460000D01*
X140980000Y-92785000D02*
X140655000Y-92785000D01*
X133730000Y-85535000D02*
X134055000Y-85535000D01*
X133730000Y-92785000D02*
X134055000Y-92785000D01*
X133730000Y-85760000D02*
X132305000Y-85760000D01*
X140980000Y-92785000D02*
X140980000Y-92460000D01*
X140980000Y-85535000D02*
X140980000Y-85860000D01*
X133730000Y-85535000D02*
X133730000Y-85760000D01*
X140980000Y-85535000D02*
X140655000Y-85535000D01*
D12*
%TO.C,R5*%
X153891936Y-115930000D02*
X154346064Y-115930000D01*
X153891936Y-114460000D02*
X154346064Y-114460000D01*
%TO.C,C3*%
X158048748Y-87282000D02*
X158571252Y-87282000D01*
X158048748Y-88752000D02*
X158571252Y-88752000D01*
%TO.C,C1*%
X118483748Y-93445000D02*
X119006252Y-93445000D01*
X118483748Y-91975000D02*
X119006252Y-91975000D01*
%TO.C,C6*%
X150407248Y-110088000D02*
X150929752Y-110088000D01*
X150407248Y-108618000D02*
X150929752Y-108618000D01*
%TO.C,J4*%
X166924000Y-61535500D02*
X166924000Y-68035500D01*
X168224000Y-60225500D02*
X168224000Y-69345500D01*
X162514000Y-58835500D02*
X163014000Y-59835500D01*
X158424000Y-61535500D02*
X158424000Y-60225500D01*
X158424000Y-61535500D02*
X158424000Y-61535500D01*
X163514000Y-58835500D02*
X162514000Y-58835500D01*
X162524000Y-60225500D02*
X162524000Y-61535500D01*
X152724000Y-69345500D02*
X152724000Y-60225500D01*
X163014000Y-59835500D02*
X163514000Y-58835500D01*
X162524000Y-61535500D02*
X166924000Y-61535500D01*
X152724000Y-60225500D02*
X168224000Y-60225500D01*
X168224000Y-69345500D02*
X152724000Y-69345500D01*
X166924000Y-68035500D02*
X154024000Y-68035500D01*
X154024000Y-68035500D02*
X154024000Y-61535500D01*
X154024000Y-61535500D02*
X158424000Y-61535500D01*
%TO.C,U1*%
X116151000Y-80225000D02*
X116151000Y-81735000D01*
X119420000Y-80225000D02*
X119420000Y-84866000D01*
X109180000Y-84866000D02*
X119420000Y-84866000D01*
X109180000Y-80225000D02*
X109180000Y-84866000D01*
X109180000Y-80225000D02*
X119420000Y-80225000D01*
X109180000Y-81735000D02*
X119420000Y-81735000D01*
X112450000Y-80225000D02*
X112450000Y-81735000D01*
%TD*%
M02*
