%TF.GenerationSoftware,KiCad,Pcbnew,(6.0.10)*%
%TF.CreationDate,2023-03-08T20:46:57-06:00*%
%TF.ProjectId,defroster_pcb,64656672-6f73-4746-9572-5f7063622e6b,rev?*%
%TF.SameCoordinates,Original*%
%TF.FileFunction,Profile,NP*%
%FSLAX46Y46*%
G04 Gerber Fmt 4.6, Leading zero omitted, Abs format (unit mm)*
G04 Created by KiCad (PCBNEW (6.0.10)) date 2023-03-08 20:46:57*
%MOMM*%
%LPD*%
G01*
G04 APERTURE LIST*
%TA.AperFunction,Profile*%
%ADD10C,0.100000*%
%TD*%
G04 APERTURE END LIST*
D10*
X185420000Y-50800000D02*
X99060000Y-50800000D01*
X99060000Y-50800000D02*
X99060000Y-121920000D01*
X99060000Y-121920000D02*
X185420000Y-121920000D01*
X185420000Y-121920000D02*
X185420000Y-50800000D01*
M02*
